{"definition": {
    "outputName": "${subject}_3T_${prefix}_preproc.zip",
    "packageOffset": "RESOURCES/${fMRIName}",
    "stems": ["fnca", "fncb", "xtra", "xtrb"],
    "paths": ["MNINonLinear/Results/${fMRIName}/${fMRIName}.nii.gz",
        "MNINonLinear/Results/${fMRIName}/${fMRIName}_Atlas.dtseries.nii",
        "MNINonLinear/Results/${fMRIName}/*_TAB.txt",
        "MNINonLinear/Results/${fMRIName}/*.fsf",
        "MNINonLinear/Results/${fMRIName}/prepare_level2_feat_analysis.sh",
        "MNINonLinear/Results/${fMRIName}/EVs/*.txt",
        "MNINonLinear/Results/${fMRIName}/Movement_Regressors.txt",
        "MNINonLinear/Results/${fMRIName}/Movement_Regressors_dt.txt",
        "MNINonLinear/Results/${fMRIName}/${fMRIName}_s2.atlasroi.L.32k_fs_LR.func.gii",
        "MNINonLinear/Results/${fMRIName}/${fMRIName}_s2.atlasroi.R.32k_fs_LR.func.gii",
        "MNINonLinear/Results/${fMRIName}/${fMRIName}_AtlasSubcortical_s2.nii.gz",
        "MNINonLinear/Results/${fMRIName}/${fMRIName}_Jacobian.nii.gz",
        "MNINonLinear/Results/${fMRIName}/${fMRIName}_SBRef.nii.gz",
        "MNINonLinear/Results/${fMRIName}/RibbonVolumeToSurfaceMapping/goodvoxels.nii.gz"]
}}
