{"definition": {
    "outputName": "${subject}_3T_Structural_preproc.zip",
    "packageOffset": "RESOURCES/Details",
    "stems": ["strc", "xtra", "xtrb"],
    "paths": ["MNINonLinear/*",
        "MNINonLinear/Native/*",
        "MNINonLinear/fsaverage_LR32k/*",
        "MNINonLinear/xfms/acpc_dc2standard.nii.gz",
        "MNINonLinear/xfms/NonlinearRegJacobians.nii.gz",
        "MNINonLinear/xfms/standard2acpc_dc.nii.gz",
        "T1w/Native/*",
        "T1w/T1w_acpc_dc.nii.gz",
        "T1w/T1w_acpc_dc_restore.nii.gz",
        "T1w/T1w_acpc_dc_restore_brain.nii.gz",
        "T1w/T2w_acpc_dc.nii.gz",
        "T1w/T2w_acpc_dc_restore.nii.gz",
        "T1w/T2w_acpc_dc_restore_brain.nii.gz",
        "T1w/T1wDividedByT2w.nii.gz",
        "T1w/T1wDividedByT2w_ribbon.nii.gz",
        "T1w/brainmask_fs.nii.gz",
        "T1w/wmparc.nii.gz",
        "T1w/ribbon.nii.gz",
        "T1w/BiasField_acpc_dc.nii.gz"]
}}
